<?xml version="1.0" encoding="utf-8"?>
<!-- Generator: Adobe Illustrator 22.1.0, SVG Export Plug-In . SVG Version: 6.00 Build 0)  -->
<svg version="1.1" id="Layer_1" xmlns="http://www.w3.org/2000/svg" xmlns:xlink="http://www.w3.org/1999/xlink" x="0px" y="0px"
	 viewBox="0 0 128 90" style="enable-background:new 0 0 128 90;" xml:space="preserve">
<style type="text/css">
	.st0{fill:#FFFFFF;}
</style>
<g>
	<path class="st0" d="M0,76.9c0-7.2,5.8-13.1,13-13.1c7.2,0,13,5.9,13,13.1C26,84.1,20.2,90,13,90C5.8,90,0,84.1,0,76.9z"/>
	<path class="st0" d="M102.2,76.9c0,7.2-5.8,13.1-13,13.1l-44.5,0c-7.2,0-13-5.9-13-13.1l0,0c0-7.2,5.8-13.1,13-13.1l44.5,0
		C96.4,63.8,102.2,69.6,102.2,76.9L102.2,76.9z"/>
	<path class="st0" d="M114.8,45c0,7.2-5.8,13.1-13,13.1H26c-7.2,0-13-5.9-13-13.1l0,0c0-7.2,5.8-13.1,13-13.1h75.8
		C109,31.9,114.8,37.8,114.8,45L114.8,45z"/>
	<path class="st0" d="M128,13.1c0,7.2-5.8,13.1-13,13.1H39.1c-7.2,0-13-5.9-13-13.1l0,0C26,5.9,31.9,0,39.1,0H115
		C122.2,0,128,5.9,128,13.1L128,13.1z"/>
</g>
</svg>
